<mxfile host="app.diagrams.net" modified="2023-11-07T05:12:22.776Z" agent="Mozilla/5.0 (Windows NT 10.0; Win64; x64) AppleWebKit/537.36 (KHTML, like Gecko) Chrome/109.0.0.0 Safari/537.36" etag="_2F9lBtMcVlpyyKMD5fn" version="22.0.8" type="gitlab" pages="3">
  <diagram id="GeZ7J6ijz27RXPV9usES" name="Builder">
    <mxGraphModel dx="1434" dy="764" grid="1" gridSize="10" guides="1" tooltips="1" connect="1" arrows="1" fold="1" page="1" pageScale="1" pageWidth="1100" pageHeight="850" math="0" shadow="0">
      <root>
        <mxCell id="0" />
        <mxCell id="1" parent="0" />
        <mxCell id="hQOrVibTg6JfT6qW5eoG-1" value="" style="rounded=0;whiteSpace=wrap;html=1;dashed=1;" parent="1" vertex="1">
          <mxGeometry x="150" y="340" width="710" height="240" as="geometry" />
        </mxCell>
        <mxCell id="0M_lAAUdb75qNtOYc7yq-2" value="Builder" style="shape=ext;double=1;rounded=1;whiteSpace=wrap;html=1;" parent="1" vertex="1">
          <mxGeometry x="170" y="440" width="70" height="40" as="geometry" />
        </mxCell>
        <mxCell id="0M_lAAUdb75qNtOYc7yq-3" value="Deployer" style="shape=ext;double=1;rounded=1;whiteSpace=wrap;html=1;fillColor=#fff2cc;strokeColor=#d6b656;" parent="1" vertex="1">
          <mxGeometry x="250" y="440" width="190" height="40" as="geometry" />
        </mxCell>
        <mxCell id="0M_lAAUdb75qNtOYc7yq-4" value="Engine" style="shape=ext;double=1;rounded=1;whiteSpace=wrap;html=1;fillColor=#fff2cc;strokeColor=#d6b656;" parent="1" vertex="1">
          <mxGeometry x="641" y="440" width="200" height="40" as="geometry" />
        </mxCell>
        <mxCell id="0M_lAAUdb75qNtOYc7yq-5" style="edgeStyle=orthogonalEdgeStyle;rounded=0;orthogonalLoop=1;jettySize=auto;html=1;exitX=1;exitY=0.5;exitDx=0;exitDy=0;entryX=0;entryY=0.5;entryDx=0;entryDy=0;fillColor=#d80073;strokeColor=#A50040;" parent="1" edge="1">
          <mxGeometry relative="1" as="geometry">
            <mxPoint x="681" y="538" as="sourcePoint" />
            <mxPoint x="741" y="538" as="targetPoint" />
          </mxGeometry>
        </mxCell>
        <mxCell id="0M_lAAUdb75qNtOYc7yq-6" value="Repository" style="shape=ext;double=1;rounded=1;whiteSpace=wrap;html=1;fillColor=#fff2cc;strokeColor=#d6b656;" parent="1" vertex="1">
          <mxGeometry x="401" y="520" width="280" height="40" as="geometry" />
        </mxCell>
        <mxCell id="0M_lAAUdb75qNtOYc7yq-7" value="Communicator" style="shape=ext;double=1;rounded=1;whiteSpace=wrap;html=1;fillColor=#fff2cc;strokeColor=#d6b656;" parent="1" vertex="1">
          <mxGeometry x="741" y="520" width="100" height="40" as="geometry" />
        </mxCell>
        <mxCell id="0M_lAAUdb75qNtOYc7yq-8" value="Synchronizer" style="shape=ext;double=1;rounded=1;whiteSpace=wrap;html=1;fillColor=#fff2cc;strokeColor=#d6b656;" parent="1" vertex="1">
          <mxGeometry x="310" y="520" width="80" height="40" as="geometry" />
        </mxCell>
        <mxCell id="0M_lAAUdb75qNtOYc7yq-9" value="SQL/DB Utility" style="shape=ext;double=1;rounded=1;whiteSpace=wrap;html=1;fillColor=#fff2cc;strokeColor=#d6b656;" parent="1" vertex="1">
          <mxGeometry x="170" y="520" width="130" height="40" as="geometry" />
        </mxCell>
        <mxCell id="0M_lAAUdb75qNtOYc7yq-50" style="edgeStyle=orthogonalEdgeStyle;rounded=0;orthogonalLoop=1;jettySize=auto;html=1;exitX=1;exitY=0.5;exitDx=0;exitDy=0;entryX=0;entryY=0.5;entryDx=0;entryDy=0;" parent="1" source="0M_lAAUdb75qNtOYc7yq-10" target="0M_lAAUdb75qNtOYc7yq-4" edge="1">
          <mxGeometry relative="1" as="geometry" />
        </mxCell>
        <mxCell id="0M_lAAUdb75qNtOYc7yq-10" value="Tester" style="shape=ext;double=1;rounded=1;whiteSpace=wrap;html=1;" parent="1" vertex="1">
          <mxGeometry x="531" y="440" width="70" height="40" as="geometry" />
        </mxCell>
        <mxCell id="0M_lAAUdb75qNtOYc7yq-12" value="NFS (EFS)" style="shape=ext;double=1;rounded=1;whiteSpace=wrap;html=1;" parent="1" vertex="1">
          <mxGeometry x="401" y="600" width="440" height="40" as="geometry" />
        </mxCell>
        <mxCell id="0M_lAAUdb75qNtOYc7yq-13" value="Remote Application Repository (S3)" style="shape=ext;double=1;rounded=1;whiteSpace=wrap;html=1;fillColor=#fff2cc;strokeColor=#d6b656;" parent="1" vertex="1">
          <mxGeometry x="311" y="680" width="530" height="40" as="geometry" />
        </mxCell>
        <mxCell id="0M_lAAUdb75qNtOYc7yq-14" value="Builder API" style="shape=ext;double=1;rounded=1;whiteSpace=wrap;html=1;" parent="1" vertex="1">
          <mxGeometry x="170" y="360" width="70" height="40" as="geometry" />
        </mxCell>
        <mxCell id="0M_lAAUdb75qNtOYc7yq-15" value="Service API" style="shape=ext;double=1;rounded=1;whiteSpace=wrap;html=1;fillColor=#fff2cc;strokeColor=#d6b656;" parent="1" vertex="1">
          <mxGeometry x="641" y="360" width="200" height="40" as="geometry" />
        </mxCell>
        <mxCell id="0M_lAAUdb75qNtOYc7yq-16" value="Deploy API" style="shape=ext;double=1;rounded=1;whiteSpace=wrap;html=1;" parent="1" vertex="1">
          <mxGeometry x="250" y="360" width="190" height="40" as="geometry" />
        </mxCell>
        <mxCell id="0M_lAAUdb75qNtOYc7yq-17" value="Test API" style="shape=ext;double=1;rounded=1;whiteSpace=wrap;html=1;" parent="1" vertex="1">
          <mxGeometry x="531" y="360" width="70" height="40" as="geometry" />
        </mxCell>
        <mxCell id="0M_lAAUdb75qNtOYc7yq-18" style="edgeStyle=orthogonalEdgeStyle;rounded=0;orthogonalLoop=1;jettySize=auto;html=1;exitX=1;exitY=0.5;exitDx=0;exitDy=0;entryX=0;entryY=0.5;entryDx=0;entryDy=0;" parent="1" source="0M_lAAUdb75qNtOYc7yq-19" target="0M_lAAUdb75qNtOYc7yq-20" edge="1">
          <mxGeometry relative="1" as="geometry" />
        </mxCell>
        <mxCell id="0M_lAAUdb75qNtOYc7yq-19" value="API Gateway" style="shape=ext;double=1;rounded=1;whiteSpace=wrap;html=1;" parent="1" vertex="1">
          <mxGeometry x="170" y="280" width="551" height="40" as="geometry" />
        </mxCell>
        <mxCell id="0M_lAAUdb75qNtOYc7yq-20" value="Authorizer" style="shape=ext;double=1;rounded=1;whiteSpace=wrap;html=1;" parent="1" vertex="1">
          <mxGeometry x="761" y="280" width="80" height="40" as="geometry" />
        </mxCell>
        <mxCell id="0M_lAAUdb75qNtOYc7yq-21" value="Service Builder VSCode" style="shape=ext;double=1;rounded=1;whiteSpace=wrap;html=1;" parent="1" vertex="1">
          <mxGeometry x="170" y="200" width="461" height="40" as="geometry" />
        </mxCell>
        <mxCell id="0M_lAAUdb75qNtOYc7yq-22" style="edgeStyle=orthogonalEdgeStyle;rounded=0;orthogonalLoop=1;jettySize=auto;html=1;exitX=0.5;exitY=1;exitDx=0;exitDy=0;" parent="1" edge="1">
          <mxGeometry relative="1" as="geometry">
            <mxPoint x="680" y="240" as="sourcePoint" />
            <mxPoint x="680" y="280" as="targetPoint" />
          </mxGeometry>
        </mxCell>
        <mxCell id="0M_lAAUdb75qNtOYc7yq-23" value="Client Application" style="shape=ext;double=1;rounded=1;whiteSpace=wrap;html=1;" parent="1" vertex="1">
          <mxGeometry x="641" y="200" width="200" height="40" as="geometry" />
        </mxCell>
        <mxCell id="0M_lAAUdb75qNtOYc7yq-24" style="edgeStyle=orthogonalEdgeStyle;rounded=0;orthogonalLoop=1;jettySize=auto;html=1;exitX=0.5;exitY=1;exitDx=0;exitDy=0;" parent="1" edge="1">
          <mxGeometry relative="1" as="geometry">
            <mxPoint x="680" y="320" as="sourcePoint" />
            <mxPoint x="680" y="360" as="targetPoint" />
          </mxGeometry>
        </mxCell>
        <mxCell id="0M_lAAUdb75qNtOYc7yq-25" style="edgeStyle=orthogonalEdgeStyle;rounded=0;orthogonalLoop=1;jettySize=auto;html=1;exitX=0.5;exitY=1;exitDx=0;exitDy=0;" parent="1" edge="1">
          <mxGeometry relative="1" as="geometry">
            <mxPoint x="441" y="241" as="sourcePoint" />
            <mxPoint x="441" y="281" as="targetPoint" />
          </mxGeometry>
        </mxCell>
        <mxCell id="0M_lAAUdb75qNtOYc7yq-26" style="edgeStyle=orthogonalEdgeStyle;rounded=0;orthogonalLoop=1;jettySize=auto;html=1;exitX=0.5;exitY=1;exitDx=0;exitDy=0;" parent="1" edge="1">
          <mxGeometry relative="1" as="geometry">
            <mxPoint x="330" y="320" as="sourcePoint" />
            <mxPoint x="330" y="360" as="targetPoint" />
          </mxGeometry>
        </mxCell>
        <mxCell id="0M_lAAUdb75qNtOYc7yq-27" style="edgeStyle=orthogonalEdgeStyle;rounded=0;orthogonalLoop=1;jettySize=auto;html=1;exitX=0.5;exitY=1;exitDx=0;exitDy=0;" parent="1" edge="1">
          <mxGeometry relative="1" as="geometry">
            <mxPoint x="330" y="400" as="sourcePoint" />
            <mxPoint x="330" y="440" as="targetPoint" />
          </mxGeometry>
        </mxCell>
        <mxCell id="0M_lAAUdb75qNtOYc7yq-28" style="edgeStyle=orthogonalEdgeStyle;rounded=0;orthogonalLoop=1;jettySize=auto;html=1;exitX=0.5;exitY=1;exitDx=0;exitDy=0;" parent="1" edge="1">
          <mxGeometry relative="1" as="geometry">
            <mxPoint x="200" y="400" as="sourcePoint" />
            <mxPoint x="200" y="440" as="targetPoint" />
          </mxGeometry>
        </mxCell>
        <mxCell id="0M_lAAUdb75qNtOYc7yq-29" style="edgeStyle=orthogonalEdgeStyle;rounded=0;orthogonalLoop=1;jettySize=auto;html=1;exitX=0.5;exitY=1;exitDx=0;exitDy=0;" parent="1" edge="1">
          <mxGeometry relative="1" as="geometry">
            <mxPoint x="200" y="320" as="sourcePoint" />
            <mxPoint x="200" y="360" as="targetPoint" />
          </mxGeometry>
        </mxCell>
        <mxCell id="0M_lAAUdb75qNtOYc7yq-30" style="edgeStyle=orthogonalEdgeStyle;rounded=0;orthogonalLoop=1;jettySize=auto;html=1;exitX=0.5;exitY=1;exitDx=0;exitDy=0;" parent="1" edge="1">
          <mxGeometry relative="1" as="geometry">
            <mxPoint x="571" y="320" as="sourcePoint" />
            <mxPoint x="571" y="360" as="targetPoint" />
          </mxGeometry>
        </mxCell>
        <mxCell id="0M_lAAUdb75qNtOYc7yq-31" style="edgeStyle=orthogonalEdgeStyle;rounded=0;orthogonalLoop=1;jettySize=auto;html=1;exitX=0.5;exitY=1;exitDx=0;exitDy=0;fillColor=#d80073;strokeColor=#A50040;" parent="1" edge="1">
          <mxGeometry relative="1" as="geometry">
            <mxPoint x="270" y="520" as="sourcePoint" />
            <mxPoint x="270" y="480" as="targetPoint" />
          </mxGeometry>
        </mxCell>
        <mxCell id="0M_lAAUdb75qNtOYc7yq-32" style="edgeStyle=orthogonalEdgeStyle;rounded=0;orthogonalLoop=1;jettySize=auto;html=1;exitX=0.5;exitY=1;exitDx=0;exitDy=0;fillColor=#d80073;strokeColor=#A50040;" parent="1" edge="1">
          <mxGeometry relative="1" as="geometry">
            <mxPoint x="200" y="520" as="sourcePoint" />
            <mxPoint x="200" y="480" as="targetPoint" />
          </mxGeometry>
        </mxCell>
        <mxCell id="0M_lAAUdb75qNtOYc7yq-33" style="edgeStyle=orthogonalEdgeStyle;rounded=0;orthogonalLoop=1;jettySize=auto;html=1;exitX=0.5;exitY=1;exitDx=0;exitDy=0;" parent="1" edge="1">
          <mxGeometry relative="1" as="geometry">
            <mxPoint x="571" y="400" as="sourcePoint" />
            <mxPoint x="571" y="440" as="targetPoint" />
          </mxGeometry>
        </mxCell>
        <mxCell id="0M_lAAUdb75qNtOYc7yq-34" style="edgeStyle=orthogonalEdgeStyle;rounded=0;orthogonalLoop=1;jettySize=auto;html=1;exitX=0.5;exitY=1;exitDx=0;exitDy=0;" parent="1" edge="1">
          <mxGeometry relative="1" as="geometry">
            <mxPoint x="680" y="400" as="sourcePoint" />
            <mxPoint x="680" y="440" as="targetPoint" />
          </mxGeometry>
        </mxCell>
        <mxCell id="0M_lAAUdb75qNtOYc7yq-36" style="edgeStyle=orthogonalEdgeStyle;rounded=0;orthogonalLoop=1;jettySize=auto;html=1;exitX=0.5;exitY=1;exitDx=0;exitDy=0;fillColor=#d80073;strokeColor=#A50040;" parent="1" edge="1">
          <mxGeometry relative="1" as="geometry">
            <mxPoint x="349" y="520" as="sourcePoint" />
            <mxPoint x="349" y="480" as="targetPoint" />
          </mxGeometry>
        </mxCell>
        <mxCell id="0M_lAAUdb75qNtOYc7yq-37" style="edgeStyle=orthogonalEdgeStyle;rounded=0;orthogonalLoop=1;jettySize=auto;html=1;exitX=0.5;exitY=1;exitDx=0;exitDy=0;fillColor=#d80073;strokeColor=#A50040;" parent="1" edge="1">
          <mxGeometry relative="1" as="geometry">
            <mxPoint x="661" y="520" as="sourcePoint" />
            <mxPoint x="661" y="480" as="targetPoint" />
          </mxGeometry>
        </mxCell>
        <mxCell id="0M_lAAUdb75qNtOYc7yq-38" style="edgeStyle=orthogonalEdgeStyle;rounded=0;orthogonalLoop=1;jettySize=auto;html=1;exitX=0.5;exitY=1;exitDx=0;exitDy=0;fillColor=#d80073;strokeColor=#A50040;" parent="1" edge="1">
          <mxGeometry relative="1" as="geometry">
            <mxPoint x="420" y="480" as="sourcePoint" />
            <mxPoint x="420" y="520" as="targetPoint" />
          </mxGeometry>
        </mxCell>
        <mxCell id="0M_lAAUdb75qNtOYc7yq-39" style="edgeStyle=orthogonalEdgeStyle;rounded=0;orthogonalLoop=1;jettySize=auto;html=1;fillColor=#f8cecc;strokeColor=#b85450;" parent="1" edge="1">
          <mxGeometry relative="1" as="geometry">
            <mxPoint x="200" y="650" as="sourcePoint" />
            <mxPoint x="200" y="560" as="targetPoint" />
          </mxGeometry>
        </mxCell>
        <mxCell id="0M_lAAUdb75qNtOYc7yq-40" style="edgeStyle=orthogonalEdgeStyle;rounded=0;orthogonalLoop=1;jettySize=auto;html=1;exitX=0.093;exitY=-0.025;exitDx=0;exitDy=0;exitPerimeter=0;fillColor=#d80073;strokeColor=#A50040;" parent="1" edge="1">
          <mxGeometry relative="1" as="geometry">
            <mxPoint x="349.05999999999995" y="679" as="sourcePoint" />
            <mxPoint x="349" y="560" as="targetPoint" />
            <Array as="points">
              <mxPoint x="349" y="650" />
              <mxPoint x="349" y="650" />
            </Array>
          </mxGeometry>
        </mxCell>
        <mxCell id="0M_lAAUdb75qNtOYc7yq-41" style="edgeStyle=orthogonalEdgeStyle;rounded=0;orthogonalLoop=1;jettySize=auto;html=1;exitX=1;exitY=0.5;exitDx=0;exitDy=0;entryX=0;entryY=0.5;entryDx=0;entryDy=0;fillColor=#d80073;strokeColor=#A50040;" parent="1" edge="1">
          <mxGeometry relative="1" as="geometry">
            <mxPoint x="741" y="548" as="sourcePoint" />
            <mxPoint x="681" y="548" as="targetPoint" />
          </mxGeometry>
        </mxCell>
        <mxCell id="0M_lAAUdb75qNtOYc7yq-42" style="edgeStyle=orthogonalEdgeStyle;rounded=0;orthogonalLoop=1;jettySize=auto;html=1;exitX=0.5;exitY=1;exitDx=0;exitDy=0;fillColor=#d80073;strokeColor=#A50040;" parent="1" edge="1">
          <mxGeometry relative="1" as="geometry">
            <mxPoint x="780" y="559" as="sourcePoint" />
            <mxPoint x="780" y="599" as="targetPoint" />
          </mxGeometry>
        </mxCell>
        <mxCell id="0M_lAAUdb75qNtOYc7yq-43" style="edgeStyle=orthogonalEdgeStyle;rounded=0;orthogonalLoop=1;jettySize=auto;html=1;exitX=0.5;exitY=1;exitDx=0;exitDy=0;fillColor=#d80073;strokeColor=#A50040;" parent="1" edge="1">
          <mxGeometry relative="1" as="geometry">
            <mxPoint x="801" y="599" as="sourcePoint" />
            <mxPoint x="801" y="559" as="targetPoint" />
          </mxGeometry>
        </mxCell>
        <mxCell id="0M_lAAUdb75qNtOYc7yq-44" style="edgeStyle=orthogonalEdgeStyle;rounded=0;orthogonalLoop=1;jettySize=auto;html=1;exitX=0.5;exitY=1;exitDx=0;exitDy=0;fillColor=#d80073;strokeColor=#A50040;" parent="1" edge="1">
          <mxGeometry relative="1" as="geometry">
            <mxPoint x="420" y="560" as="sourcePoint" />
            <mxPoint x="420" y="600" as="targetPoint" />
          </mxGeometry>
        </mxCell>
        <mxCell id="0M_lAAUdb75qNtOYc7yq-45" value="Inspactor" style="shape=ext;double=1;rounded=1;whiteSpace=wrap;html=1;" parent="1" vertex="1">
          <mxGeometry x="451" y="441" width="70" height="40" as="geometry" />
        </mxCell>
        <mxCell id="0M_lAAUdb75qNtOYc7yq-46" value="Inspect API" style="shape=ext;double=1;rounded=1;whiteSpace=wrap;html=1;" parent="1" vertex="1">
          <mxGeometry x="451" y="361" width="70" height="40" as="geometry" />
        </mxCell>
        <mxCell id="0M_lAAUdb75qNtOYc7yq-47" style="edgeStyle=orthogonalEdgeStyle;rounded=0;orthogonalLoop=1;jettySize=auto;html=1;exitX=0.5;exitY=1;exitDx=0;exitDy=0;" parent="1" edge="1">
          <mxGeometry relative="1" as="geometry">
            <mxPoint x="491" y="321" as="sourcePoint" />
            <mxPoint x="491" y="361" as="targetPoint" />
          </mxGeometry>
        </mxCell>
        <mxCell id="0M_lAAUdb75qNtOYc7yq-48" style="edgeStyle=orthogonalEdgeStyle;rounded=0;orthogonalLoop=1;jettySize=auto;html=1;exitX=0.5;exitY=1;exitDx=0;exitDy=0;" parent="1" edge="1">
          <mxGeometry relative="1" as="geometry">
            <mxPoint x="491" y="401" as="sourcePoint" />
            <mxPoint x="491" y="441" as="targetPoint" />
          </mxGeometry>
        </mxCell>
        <mxCell id="0M_lAAUdb75qNtOYc7yq-49" style="edgeStyle=orthogonalEdgeStyle;rounded=0;orthogonalLoop=1;jettySize=auto;html=1;exitX=0.5;exitY=1;exitDx=0;exitDy=0;fillColor=#d80073;strokeColor=#A50040;" parent="1" edge="1">
          <mxGeometry relative="1" as="geometry">
            <mxPoint x="491" y="521" as="sourcePoint" />
            <mxPoint x="491" y="481" as="targetPoint" />
          </mxGeometry>
        </mxCell>
        <mxCell id="0M_lAAUdb75qNtOYc7yq-51" value="DB Gateway (NAT)" style="shape=ext;double=1;rounded=1;whiteSpace=wrap;html=1;" parent="1" vertex="1">
          <mxGeometry x="170" y="680" width="130" height="40" as="geometry" />
        </mxCell>
      </root>
    </mxGraphModel>
  </diagram>
  <diagram id="TjD1IqAd-OTDR8S4prFg" name="Runtime">
    <mxGraphModel dx="1434" dy="764" grid="1" gridSize="10" guides="1" tooltips="1" connect="1" arrows="1" fold="1" page="1" pageScale="1" pageWidth="1100" pageHeight="850" math="0" shadow="0">
      <root>
        <mxCell id="0" />
        <mxCell id="1" parent="0" />
        <mxCell id="WZtm1Aq-1cONFM0PsEMr-45" value="" style="rounded=0;whiteSpace=wrap;html=1;dashed=1;strokeWidth=1;" vertex="1" parent="1">
          <mxGeometry x="180" y="340" width="600" height="240" as="geometry" />
        </mxCell>
        <mxCell id="WZtm1Aq-1cONFM0PsEMr-2" value="Deployer" style="shape=ext;double=1;rounded=1;whiteSpace=wrap;html=1;" vertex="1" parent="1">
          <mxGeometry x="200" y="440" width="320" height="40" as="geometry" />
        </mxCell>
        <mxCell id="WZtm1Aq-1cONFM0PsEMr-3" value="Engine" style="shape=ext;double=1;rounded=1;whiteSpace=wrap;html=1;" vertex="1" parent="1">
          <mxGeometry x="530" y="440" width="230" height="40" as="geometry" />
        </mxCell>
        <mxCell id="WZtm1Aq-1cONFM0PsEMr-5" value="Repository" style="shape=ext;double=1;rounded=1;whiteSpace=wrap;html=1;" vertex="1" parent="1">
          <mxGeometry x="480" y="520" width="280" height="40" as="geometry" />
        </mxCell>
        <mxCell id="WZtm1Aq-1cONFM0PsEMr-7" value="Synchronizer" style="shape=ext;double=1;rounded=1;whiteSpace=wrap;html=1;" vertex="1" parent="1">
          <mxGeometry x="340" y="520" width="130" height="40" as="geometry" />
        </mxCell>
        <mxCell id="WZtm1Aq-1cONFM0PsEMr-8" value="SQL/DB Utility" style="shape=ext;double=1;rounded=1;whiteSpace=wrap;html=1;" vertex="1" parent="1">
          <mxGeometry x="200" y="520" width="130" height="40" as="geometry" />
        </mxCell>
        <mxCell id="WZtm1Aq-1cONFM0PsEMr-10" value="DB" style="shape=cylinder3;whiteSpace=wrap;html=1;boundedLbl=1;backgroundOutline=1;size=15;" vertex="1" parent="1">
          <mxGeometry x="200" y="610" width="60" height="70" as="geometry" />
        </mxCell>
        <mxCell id="WZtm1Aq-1cONFM0PsEMr-12" value="Remote Application Repository (S3)" style="shape=ext;double=1;rounded=1;whiteSpace=wrap;html=1;" vertex="1" parent="1">
          <mxGeometry x="340" y="640" width="420" height="40" as="geometry" />
        </mxCell>
        <mxCell id="WZtm1Aq-1cONFM0PsEMr-14" value="Service API" style="shape=ext;double=1;rounded=1;whiteSpace=wrap;html=1;" vertex="1" parent="1">
          <mxGeometry x="200" y="360" width="560" height="40" as="geometry" />
        </mxCell>
        <mxCell id="WZtm1Aq-1cONFM0PsEMr-22" value="Client Application" style="shape=ext;double=1;rounded=1;whiteSpace=wrap;html=1;" vertex="1" parent="1">
          <mxGeometry x="200" y="240" width="560" height="40" as="geometry" />
        </mxCell>
        <mxCell id="WZtm1Aq-1cONFM0PsEMr-23" style="edgeStyle=orthogonalEdgeStyle;rounded=0;orthogonalLoop=1;jettySize=auto;html=1;exitX=0.5;exitY=1;exitDx=0;exitDy=0;" edge="1" parent="1" source="WZtm1Aq-1cONFM0PsEMr-22">
          <mxGeometry relative="1" as="geometry">
            <mxPoint x="480" y="320" as="sourcePoint" />
            <mxPoint x="480" y="360" as="targetPoint" />
          </mxGeometry>
        </mxCell>
        <mxCell id="WZtm1Aq-1cONFM0PsEMr-31" style="edgeStyle=orthogonalEdgeStyle;rounded=0;orthogonalLoop=1;jettySize=auto;html=1;exitX=0.5;exitY=1;exitDx=0;exitDy=0;fillColor=#d80073;strokeColor=#A50040;" edge="1" parent="1">
          <mxGeometry relative="1" as="geometry">
            <mxPoint x="230" y="520" as="sourcePoint" />
            <mxPoint x="230" y="480" as="targetPoint" />
          </mxGeometry>
        </mxCell>
        <mxCell id="WZtm1Aq-1cONFM0PsEMr-33" style="edgeStyle=orthogonalEdgeStyle;rounded=0;orthogonalLoop=1;jettySize=auto;html=1;exitX=0.5;exitY=1;exitDx=0;exitDy=0;" edge="1" parent="1">
          <mxGeometry relative="1" as="geometry">
            <mxPoint x="640" y="440" as="sourcePoint" />
            <mxPoint x="640" y="400" as="targetPoint" />
          </mxGeometry>
        </mxCell>
        <mxCell id="WZtm1Aq-1cONFM0PsEMr-35" style="edgeStyle=orthogonalEdgeStyle;rounded=0;orthogonalLoop=1;jettySize=auto;html=1;exitX=0.5;exitY=1;exitDx=0;exitDy=0;fillColor=#d80073;strokeColor=#A50040;" edge="1" parent="1">
          <mxGeometry relative="1" as="geometry">
            <mxPoint x="400" y="520" as="sourcePoint" />
            <mxPoint x="400" y="480" as="targetPoint" />
          </mxGeometry>
        </mxCell>
        <mxCell id="WZtm1Aq-1cONFM0PsEMr-36" style="edgeStyle=orthogonalEdgeStyle;rounded=0;orthogonalLoop=1;jettySize=auto;html=1;exitX=0.5;exitY=1;exitDx=0;exitDy=0;fillColor=#d80073;strokeColor=#A50040;" edge="1" parent="1">
          <mxGeometry relative="1" as="geometry">
            <mxPoint x="640" y="520" as="sourcePoint" />
            <mxPoint x="640" y="480" as="targetPoint" />
          </mxGeometry>
        </mxCell>
        <mxCell id="WZtm1Aq-1cONFM0PsEMr-37" style="edgeStyle=orthogonalEdgeStyle;rounded=0;orthogonalLoop=1;jettySize=auto;html=1;exitX=0.5;exitY=1;exitDx=0;exitDy=0;fillColor=#d80073;strokeColor=#A50040;" edge="1" parent="1">
          <mxGeometry relative="1" as="geometry">
            <mxPoint x="500" y="480" as="sourcePoint" />
            <mxPoint x="500" y="520" as="targetPoint" />
          </mxGeometry>
        </mxCell>
        <mxCell id="WZtm1Aq-1cONFM0PsEMr-38" style="edgeStyle=orthogonalEdgeStyle;rounded=0;orthogonalLoop=1;jettySize=auto;html=1;fillColor=#f8cecc;strokeColor=#b85450;" edge="1" parent="1" source="WZtm1Aq-1cONFM0PsEMr-10">
          <mxGeometry relative="1" as="geometry">
            <mxPoint x="230" y="600" as="sourcePoint" />
            <mxPoint x="230" y="560" as="targetPoint" />
          </mxGeometry>
        </mxCell>
        <mxCell id="WZtm1Aq-1cONFM0PsEMr-39" style="edgeStyle=orthogonalEdgeStyle;rounded=0;orthogonalLoop=1;jettySize=auto;html=1;exitX=0.093;exitY=-0.025;exitDx=0;exitDy=0;exitPerimeter=0;fillColor=#d80073;strokeColor=#A50040;" edge="1" parent="1">
          <mxGeometry relative="1" as="geometry">
            <mxPoint x="400.05999999999995" y="599" as="sourcePoint" />
            <mxPoint x="400" y="560" as="targetPoint" />
          </mxGeometry>
        </mxCell>
      </root>
    </mxGraphModel>
  </diagram>
  <diagram id="-bgiw44v00LjTUEVuL4n" name="Manager">
    <mxGraphModel dx="1434" dy="764" grid="1" gridSize="10" guides="1" tooltips="1" connect="1" arrows="1" fold="1" page="1" pageScale="1" pageWidth="1100" pageHeight="850" math="0" shadow="0">
      <root>
        <mxCell id="0" />
        <mxCell id="1" parent="0" />
        <mxCell id="s_9nvLjv5IF_NnYCW11X-1" value="" style="rounded=0;whiteSpace=wrap;html=1;dashed=1;" vertex="1" parent="1">
          <mxGeometry x="170" y="340" width="620" height="120" as="geometry" />
        </mxCell>
        <mxCell id="s_9nvLjv5IF_NnYCW11X-13" value="DB" style="shape=ext;double=1;rounded=1;whiteSpace=wrap;html=1;" vertex="1" parent="1">
          <mxGeometry x="198" y="520" width="562" height="40" as="geometry" />
        </mxCell>
        <mxCell id="s_9nvLjv5IF_NnYCW11X-14" value="User" style="shape=ext;double=1;rounded=1;whiteSpace=wrap;html=1;" vertex="1" parent="1">
          <mxGeometry x="200" y="380" width="90" height="40" as="geometry" />
        </mxCell>
        <mxCell id="s_9nvLjv5IF_NnYCW11X-15" value="Runtime" style="shape=ext;double=1;rounded=1;whiteSpace=wrap;html=1;" vertex="1" parent="1">
          <mxGeometry x="570" y="380" width="190" height="40" as="geometry" />
        </mxCell>
        <mxCell id="s_9nvLjv5IF_NnYCW11X-16" value="Token" style="shape=ext;double=1;rounded=1;whiteSpace=wrap;html=1;" vertex="1" parent="1">
          <mxGeometry x="303" y="380" width="87" height="40" as="geometry" />
        </mxCell>
        <mxCell id="s_9nvLjv5IF_NnYCW11X-17" value="Workspace" style="shape=ext;double=1;rounded=1;whiteSpace=wrap;html=1;" vertex="1" parent="1">
          <mxGeometry x="400" y="380" width="160" height="40" as="geometry" />
        </mxCell>
        <mxCell id="s_9nvLjv5IF_NnYCW11X-18" style="edgeStyle=orthogonalEdgeStyle;rounded=0;orthogonalLoop=1;jettySize=auto;html=1;exitX=1;exitY=0.5;exitDx=0;exitDy=0;entryX=0;entryY=0.5;entryDx=0;entryDy=0;" edge="1" parent="1" source="s_9nvLjv5IF_NnYCW11X-19" target="s_9nvLjv5IF_NnYCW11X-20">
          <mxGeometry relative="1" as="geometry" />
        </mxCell>
        <mxCell id="s_9nvLjv5IF_NnYCW11X-19" value="API Gateway" style="shape=ext;double=1;rounded=1;whiteSpace=wrap;html=1;" vertex="1" parent="1">
          <mxGeometry x="200" y="280" width="440" height="40" as="geometry" />
        </mxCell>
        <mxCell id="s_9nvLjv5IF_NnYCW11X-20" value="Authorizer" style="shape=ext;double=1;rounded=1;whiteSpace=wrap;html=1;" vertex="1" parent="1">
          <mxGeometry x="680" y="280" width="80" height="40" as="geometry" />
        </mxCell>
        <mxCell id="s_9nvLjv5IF_NnYCW11X-21" value="Requester (VSCode)" style="shape=ext;double=1;rounded=1;whiteSpace=wrap;html=1;" vertex="1" parent="1">
          <mxGeometry x="200" y="200" width="240" height="40" as="geometry" />
        </mxCell>
        <mxCell id="s_9nvLjv5IF_NnYCW11X-22" style="edgeStyle=orthogonalEdgeStyle;rounded=0;orthogonalLoop=1;jettySize=auto;html=1;exitX=0.5;exitY=1;exitDx=0;exitDy=0;" edge="1" parent="1">
          <mxGeometry relative="1" as="geometry">
            <mxPoint x="600" y="240" as="sourcePoint" />
            <mxPoint x="600" y="280" as="targetPoint" />
          </mxGeometry>
        </mxCell>
        <mxCell id="s_9nvLjv5IF_NnYCW11X-23" value="Service Console" style="shape=ext;double=1;rounded=1;whiteSpace=wrap;html=1;" vertex="1" parent="1">
          <mxGeometry x="460" y="200" width="300" height="40" as="geometry" />
        </mxCell>
        <mxCell id="s_9nvLjv5IF_NnYCW11X-24" style="edgeStyle=orthogonalEdgeStyle;rounded=0;orthogonalLoop=1;jettySize=auto;html=1;exitX=0.5;exitY=1;exitDx=0;exitDy=0;" edge="1" parent="1">
          <mxGeometry relative="1" as="geometry">
            <mxPoint x="600" y="334" as="sourcePoint" />
            <mxPoint x="600" y="374" as="targetPoint" />
          </mxGeometry>
        </mxCell>
        <mxCell id="s_9nvLjv5IF_NnYCW11X-25" style="edgeStyle=orthogonalEdgeStyle;rounded=0;orthogonalLoop=1;jettySize=auto;html=1;exitX=0.5;exitY=1;exitDx=0;exitDy=0;" edge="1" parent="1">
          <mxGeometry relative="1" as="geometry">
            <mxPoint x="320" y="241" as="sourcePoint" />
            <mxPoint x="320" y="281" as="targetPoint" />
          </mxGeometry>
        </mxCell>
        <mxCell id="s_9nvLjv5IF_NnYCW11X-26" style="edgeStyle=orthogonalEdgeStyle;rounded=0;orthogonalLoop=1;jettySize=auto;html=1;exitX=0.5;exitY=1;exitDx=0;exitDy=0;" edge="1" parent="1">
          <mxGeometry relative="1" as="geometry">
            <mxPoint x="349" y="334" as="sourcePoint" />
            <mxPoint x="349" y="374" as="targetPoint" />
          </mxGeometry>
        </mxCell>
        <mxCell id="s_9nvLjv5IF_NnYCW11X-29" style="edgeStyle=orthogonalEdgeStyle;rounded=0;orthogonalLoop=1;jettySize=auto;html=1;exitX=0.5;exitY=1;exitDx=0;exitDy=0;" edge="1" parent="1">
          <mxGeometry relative="1" as="geometry">
            <mxPoint x="240" y="334" as="sourcePoint" />
            <mxPoint x="240" y="374" as="targetPoint" />
          </mxGeometry>
        </mxCell>
        <mxCell id="s_9nvLjv5IF_NnYCW11X-30" style="edgeStyle=orthogonalEdgeStyle;rounded=0;orthogonalLoop=1;jettySize=auto;html=1;exitX=0.5;exitY=1;exitDx=0;exitDy=0;" edge="1" parent="1">
          <mxGeometry relative="1" as="geometry">
            <mxPoint x="480" y="333" as="sourcePoint" />
            <mxPoint x="480" y="373" as="targetPoint" />
          </mxGeometry>
        </mxCell>
        <mxCell id="s_9nvLjv5IF_NnYCW11X-40" style="edgeStyle=orthogonalEdgeStyle;rounded=0;orthogonalLoop=1;jettySize=auto;html=1;exitX=0.093;exitY=-0.025;exitDx=0;exitDy=0;exitPerimeter=0;fillColor=#d80073;strokeColor=#A50040;" edge="1" parent="1">
          <mxGeometry relative="1" as="geometry">
            <mxPoint x="478.55999999999995" y="520" as="sourcePoint" />
            <mxPoint x="478.5" y="431" as="targetPoint" />
            <Array as="points">
              <mxPoint x="479" y="480" />
              <mxPoint x="479" y="480" />
            </Array>
          </mxGeometry>
        </mxCell>
      </root>
    </mxGraphModel>
  </diagram>
</mxfile>
